/Users/anilbhagat/ignite/etradingparagon-svc-igniteserver/src/main/java/com/etp/stream/flink/kafka/KafkaEvent.java
/Users/anilbhagat/ignite/etradingparagon-svc-igniteserver/src/main/java/com/etp/stream/flink/kafka/Kafka010Example.java
/Users/anilbhagat/ignite/etradingparagon-svc-igniteserver/src/main/java/com/etp/stream/flink/kafka/KafkaEventSchema.java
